"verb" "count.celex" "irregular.modern" "irregular.middle" "irregular.old" "source.old" "source.middle" "total.tokens.celex"
"backen" 7 TRUE TRUE TRUE NA NA 923666
"bellen" 18 FALSE TRUE TRUE NA NA 923666
"gebären" 163 TRUE TRUE TRUE NA NA 923666
"verbergen" 175 TRUE TRUE TRUE NA NA 923666
"binden" 343 TRUE TRUE TRUE NA NA 923666
"biegen" 59 TRUE TRUE TRUE NA NA 923666
"bitten" 2356 TRUE TRUE TRUE NA NA 923666
"beißen" 127 TRUE TRUE TRUE NA NA 923666
"blasen" 85 TRUE TRUE TRUE NA NA 923666
"bleichen" 10 TRUE TRUE TRUE NA NA 923666
"blühen" 98 FALSE TRUE TRUE NA NA 923666
"braten" 13 TRUE TRUE TRUE NA NA 923666
"brechen" 361 TRUE TRUE TRUE NA NA 923666
"bringen" 3766 TRUE TRUE TRUE NA NA 923666
"brauchen" 1799 FALSE FALSE TRUE NA NA 923666
"gedeihen" 66 TRUE TRUE TRUE NA NA 923666
"dringen" 464 TRUE TRUE TRUE NA NA 923666
"dürfen" 3987 TRUE TRUE TRUE NA NA 923666
"fangen" 427 TRUE TRUE TRUE NA NA 923666
"falten" 23 FALSE TRUE TRUE NA NA 923666
"fallen" 1668 TRUE TRUE TRUE NA NA 923666
"fahren" 2884 TRUE TRUE TRUE NA NA 923666
"fechten" 19 TRUE TRUE TRUE NA NA 923666
"finden" 4687 TRUE TRUE TRUE NA NA 923666
"flechten" 20 TRUE TRUE TRUE NA NA 923666
"fließen" 191 TRUE TRUE TRUE NA NA 923666
"freßen" 100 TRUE TRUE TRUE NA NA 923666
"frieren" 63 TRUE TRUE TRUE NA NA 923666
"geben" 10290 TRUE TRUE TRUE NA NA 923666
"gehen" 7302 TRUE TRUE TRUE NA NA 923666
"gellen(*)" 1 FALSE TRUE TRUE NA NA 923666
"gelten" 1907 TRUE TRUE TRUE NA NA 923666
"beginnen" 2388 TRUE TRUE TRUE NA NA 923666
"gießen" 65 TRUE TRUE TRUE NA NA 923666
"graben" 53 TRUE TRUE TRUE NA NA 923666
"halten" 3971 TRUE TRUE TRUE NA NA 923666
"heißen" 3061 TRUE TRUE TRUE NA NA 923666
"helfen" 1225 TRUE TRUE TRUE NA NA 923666
"laufen" 1290 TRUE TRUE TRUE NA NA 923666
"neigen" 200 FALSE TRUE TRUE NA NA 923666
"(be)reuen" 50 FALSE TRUE TRUE NA NA 923666
"rufen" 928 TRUE TRUE TRUE NA NA 923666
"klingen" 327 TRUE TRUE TRUE NA NA 923666
"kneten" 13 FALSE TRUE TRUE NA NA 923666
"kommen" 1002 TRUE TRUE TRUE NA NA 923666
"kriechen" 73 TRUE TRUE TRUE NA NA 923666
"können" 25016 TRUE TRUE TRUE NA NA 923666
"liegen" 4362 TRUE TRUE TRUE NA NA 923666
"gelingen" 1168 TRUE TRUE TRUE NA NA 923666
"lügen" 98 TRUE TRUE TRUE NA NA 923666
"mögen" 3176 TRUE TRUE TRUE NA NA 923666
"mahlen" 10 TRUE TRUE TRUE NA NA 923666
"melken" 19 TRUE TRUE TRUE NA NA 923666
"messen" 294 TRUE TRUE TRUE NA NA 923666
"müssen" 14287 TRUE TRUE TRUE NA NA 923666
"nehmen" 4867 TRUE TRUE TRUE NA NA 923666
"neiden" 2 FALSE TRUE TRUE NA NA 923666
"pflegen" 256 FALSE TRUE TRUE NA NA 923666
"reiben" 76 TRUE TRUE TRUE NA NA 923666
"ringen" 93 TRUE TRUE TRUE NA NA 923666
"rinnen" 18 TRUE TRUE TRUE NA NA 923666
"riechen" 135 TRUE TRUE TRUE NA NA 923666
"reiten" 128 TRUE TRUE TRUE NA NA 923666
"salzen" 3 TRUE TRUE TRUE NA NA 923666
"sehen" 6987 TRUE TRUE TRUE NA NA 923666
"singen" 438 TRUE TRUE TRUE NA NA 923666
"sinken" 311 TRUE TRUE TRUE NA NA 923666
"sinnen" 31 TRUE TRUE TRUE NA NA 923666
"sieden" 2 TRUE TRUE TRUE NA NA 923666
"sitzen" 1476 TRUE TRUE TRUE NA NA 923666
"schöpfen" 56 FALSE TRUE TRUE NA NA 923666
"schrecken" 16 FALSE TRUE TRUE NA NA 923666
"schreiben" 1824 FALSE TRUE TRUE NA NA 923666
"schlafen" 399 TRUE TRUE TRUE NA NA 923666
"schleichen" 94 TRUE TRUE TRUE NA NA 923666
"schließen" 1264 TRUE TRUE TRUE NA NA 923666
"schmelzen" 48 TRUE TRUE TRUE NA NA 923666
"schmerzen" 39 FALSE FALSE TRUE NA NA 923666
"schneiden" 176 TRUE TRUE TRUE NA NA 923666
"schneien" 14 FALSE TRUE TRUE NA NA 923666
"sein" 104092 TRUE TRUE TRUE NA NA 923666
"spalten" 84 TRUE TRUE TRUE NA NA 923666
"spannen" 174 FALSE TRUE TRUE NA NA 923666
"spinnen" 38 TRUE TRUE TRUE NA NA 923666
"sprechen" 3598 TRUE TRUE TRUE NA NA 923666
"springen" 438 TRUE TRUE TRUE NA NA 923666
"stehen" 6771 TRUE TRUE TRUE NA NA 923666
"stechen" 74 TRUE TRUE TRUE NA NA 923666
"stecken" 396 FALSE FALSE FALSE NA NA 923666
"stehlen" 144 TRUE TRUE TRUE NA NA 923666
"sterben" 858 TRUE TRUE TRUE NA NA 923666
"steigen" 1242 TRUE TRUE TRUE NA NA 923666
"stinken" 40 TRUE TRUE TRUE NA NA 923666
"stieben" 11 TRUE TRUE TRUE NA NA 923666
"streichen" 200 TRUE TRUE TRUE NA NA 923666
"saufen" 15 TRUE TRUE TRUE NA NA 923666
"saugen" 43 TRUE TRUE TRUE NA NA 923666
"schwellen" 33 TRUE TRUE TRUE NA NA 923666
"schwären(*)" 1 FALSE TRUE TRUE NA NA 923666
"schwingen" 111 TRUE TRUE TRUE NA NA 923666
"sollen" 11138 TRUE TRUE TRUE NA NA 923666
"tragen" 1984 TRUE TRUE TRUE NA NA 923666
"treten" 1686 TRUE TRUE TRUE NA NA 923666
"treiben" 528 TRUE TRUE TRUE NA NA 923666
"trinken" 474 TRUE TRUE TRUE NA NA 923666
"triefen" 196 TRUE TRUE TRUE NA NA 923666
"trügen" 20 TRUE TRUE TRUE NA NA 923666
"taugen" 23 FALSE TRUE TRUE NA NA 923666
"tauchen" 176 FALSE FALSE TRUE NA NA 923666
"tun" 3421 TRUE TRUE TRUE NA NA 923666
"gönnen" 44 FALSE TRUE TRUE NA NA 923666
"walken" 2 FALSE TRUE TRUE NA NA 923666
"walzen" 7 FALSE FALSE TRUE NA NA 923666
"waschen" 118 TRUE TRUE TRUE NA NA 923666
"weben" 15 TRUE TRUE TRUE NA NA 923666
"werden" 69018 TRUE TRUE TRUE NA NA 923666
"werfen" 902 TRUE TRUE TRUE NA NA 923666
"gewinnen" 1750 TRUE TRUE TRUE NA NA 923666
"weisen" 835 TRUE TRUE TRUE NA NA 923666
"wissen" 4295 TRUE TRUE TRUE NA NA 923666
"wollen" 10446 TRUE TRUE TRUE NA NA 923666
"zehren" 18 FALSE FALSE TRUE NA NA 923666
"zeihen" 499 TRUE TRUE TRUE NA NA 923666
"ziehen" 1693 TRUE TRUE TRUE NA NA 923666
"zwingen" 668 TRUE TRUE TRUE NA NA 923666
